{ "npcs": [
  {
    "id": 794,
    "name": "Auctioneer",
    "description": "He gives access to auction house",
    "command": "Auction",
    "command2": "",
    "attack": 15,
    "strength": 16,
    "hits": 12,
    "defense": 18,
    "ranged": false,
    "combatlvl": 15,
    "isMembers": 0,
    "attackable": 0,
    "aggressive": 0,
    "respawnTime": 30,
    "sprites1": 0,
    "sprites2": 1,
    "sprites3": 2,
    "sprites4": -1,
    "sprites5": -1,
    "sprites6": -1,
    "sprites7": -1,
    "sprites8": -1,
    "sprites9": 46,
    "sprites10": -1,
    "sprites11": -1,
    "sprites12": -1,
    "hairColour": 16761440,
    "topColour": 2,
    "bottomColour": 8409120,
    "skinColour": 13415270,
    "camera1": 145,
    "camera2": 230,
    "walkModel": 6,
    "combatModel": 6,
    "combatSprite": 5,
    "canEdit": 0,
    "roundMode": 0
  },
  {
    "id": 795,
    "name": "Auction Clerk",
    "description": "There to help me make my auctions",
    "command": "Auction",
    "command2": "Teleport",
    "attack": 15,
    "strength": 16,
    "hits": 12,
    "defense": 18,
    "ranged": false,
    "combatlvl": 15,
    "isMembers": 0,
    "attackable": 0,
    "aggressive": 0,
    "respawnTime": 30,
    "sprites1": 3,
    "sprites2": 4,
    "sprites3": 2,
    "sprites4": -1,
    "sprites5": -1,
    "sprites6": -1,
    "sprites7": -1,
    "sprites8": -1,
    "sprites9": -1,
    "sprites10": 11,
    "sprites11": -1,
    "sprites12": -1,
    "hairColour": 11167296,
    "topColour": 11141375,
    "bottomColour": 11141375,
    "skinColour": 15531728,
    "camera1": 145,
    "camera2": 220,
    "walkModel": 6,
    "combatModel": 6,
    "combatSprite": 5,
    "canEdit": 0,
    "roundMode": 0
  },
  {
    "id": 796,
    "name": "Subscription Vendor",
    "description": "Exchange your subscription token to subscription time",
    "command": "",
    "command2": "",
    "attack": 15,
    "strength": 16,
    "hits": 12,
    "defense": 18,
    "ranged": false,
    "combatlvl": 15,
    "isMembers": 0,
    "attackable": 0,
    "aggressive": 0,
    "respawnTime": 30,
    "sprites1": 3,
    "sprites2": 4,
    "sprites3": 2,
    "sprites4": -1,
    "sprites5": -1,
    "sprites6": 77,
    "sprites7": -1,
    "sprites8": -1,
    "sprites9": -1,
    "sprites10": -1,
    "sprites11": -1,
    "sprites12": -1,
    "hairColour": 16711680,
    "topColour": 143190,
    "bottomColour": 143190,
    "skinColour": 15523536,
    "camera1": 145,
    "camera2": 220,
    "walkModel": 6,
    "combatModel": 6,
    "combatSprite": 5,
    "canEdit": 0,
    "roundMode": 0
  },
  {
    "id": 797,
    "name": "Subscription Vendor",
    "description": "Exchange your subscription token to subscription time",
    "command": "",
    "command2": "",
    "attack": 15,
    "strength": 16,
    "hits": 12,
    "defense": 18,
    "ranged": false,
    "combatlvl": 15,
    "isMembers": 0,
    "attackable": 0,
    "aggressive": 0,
    "respawnTime": 30,
    "sprites1": 0,
    "sprites2": 1,
    "sprites3": 2,
    "sprites4": -1,
    "sprites5": -1,
    "sprites6": 77,
    "sprites7": -1,
    "sprites8": -1,
    "sprites9": -1,
    "sprites10": -1,
    "sprites11": -1,
    "sprites12": -1,
    "hairColour": 16711680,
    "topColour": 143190,
    "bottomColour": 143190,
    "skinColour": 15523536,
    "camera1": 145,
    "camera2": 230,
    "walkModel": 6,
    "combatModel": 6,
    "combatSprite": 5,
    "canEdit": 0,
    "roundMode": 0
  },
  {
    "id": 798,
    "name": "Gaia",
    "description": "The earth queen with a rotten heart",
    "command": "",
    "command2": "",
    "attack": 78,
    "strength": 79,
    "hits": 79,
    "defense": 80,
    "ranged": false,
    "combatlvl": 79,
    "isMembers": 0,
    "attackable": 1,
    "aggressive": 1,
    "respawnTime": 30,
    "sprites1": 241,
    "sprites2": -1,
    "sprites3": -1,
    "sprites4": -1,
    "sprites5": -1,
    "sprites6": -1,
    "sprites7": -1,
    "sprites8": -1,
    "sprites9": -1,
    "sprites10": -1,
    "sprites11": -1,
    "sprites12": -1,
    "hairColour": 0,
    "topColour": 0,
    "bottomColour": 0,
    "skinColour": 0,
    "camera1": 275,
    "camera2": 262,
    "walkModel": 11,
    "combatModel": 11,
    "combatSprite": 30,
    "canEdit": 0,
    "roundMode": 0
  },
  {
    "id": 799,
    "name": "Ironman",
    "description": "An Ironman",
    "command": "Armour",
    "command2": "",
    "attack": 0,
    "strength": 0,
    "hits": 0,
    "defense": 0,
    "ranged": false,
    "combatlvl": 0,
    "isMembers": 0,
    "attackable": 0,
    "aggressive": 0,
    "respawnTime": 45,
    "sprites1": 0,
    "sprites2": -1,
    "sprites3": -1,
    "sprites4": -1,
    "sprites5": -1,
    "sprites6": -1,
    "sprites7": 318,
    "sprites8": 319,
    "sprites9": -1,
    "sprites10": -1,
    "sprites11": -1,
    "sprites12": -1,
    "hairColour": 6751590,
    "topColour": 0,
    "bottomColour": 14,
    "skinColour": 13415270,
    "camera1": 145,
    "camera2": 220,
    "walkModel": 6,
    "combatModel": 6,
    "combatSprite": 5,
    "canEdit": 1,
    "roundMode": 0
  },
  {
    "id": 800,
    "name": "Ultimate Ironman",
    "description": "An Ultimate Ironman",
    "command": "Armour",
    "command2": "",
    "attack": 0,
    "strength": 0,
    "hits": 0,
    "defense": 0,
    "ranged": false,
    "combatlvl": 0,
    "isMembers": 0,
    "attackable": 0,
    "aggressive": 0,
    "respawnTime": 45,
    "sprites1": 3,
    "sprites2": -1,
    "sprites3": -1,
    "sprites4": -1,
    "sprites5": -1,
    "sprites6": -1,
    "sprites7": 535,
    "sprites8": 538,
    "sprites9": -1,
    "sprites10": -1,
    "sprites11": -1,
    "sprites12": -1,
    "hairColour": 11167296,
    "topColour": 8,
    "bottomColour": 14,
    "skinColour": 13415270,
    "camera1": 145,
    "camera2": 220,
    "walkModel": 6,
    "combatModel": 6,
    "combatSprite": 5,
    "canEdit": 1,
    "roundMode": 0
  },
  {
    "id": 801,
    "name": "Hardcore Ironman",
    "description": "A Hardcore Ironman",
    "command": "Armour",
    "command2": "",
    "attack": 0,
    "strength": 0,
    "hits": 0,
    "defense": 0,
    "ranged": false,
    "combatlvl": 0,
    "isMembers": 0,
    "attackable": 0,
    "aggressive": 0,
    "respawnTime": 45,
    "sprites1": 0,
    "sprites2": -1,
    "sprites3": -1,
    "sprites4": -1,
    "sprites5": -1,
    "sprites6": 323,
    "sprites7": 324,
    "sprites8": 325,
    "sprites9": -1,
    "sprites10": -1,
    "sprites11": -1,
    "sprites12": -1,
    "hairColour": 11167296,
    "topColour": 8,
    "bottomColour": 14,
    "skinColour": 13415270,
    "camera1": 145,
    "camera2": 220,
    "walkModel": 6,
    "combatModel": 6,
    "combatSprite": 5,
    "canEdit": 1,
    "roundMode": 0
  },
  {
    "id": 802,
    "name": "Greatwood",
    "description": "A scary hard slamming tree",
    "command": "",
    "command2": "",
    "attack": 255,
    "strength": 245,
    "hits": 400,
    "defense": 300,
    "ranged": false,
    "combatlvl": 300,
    "isMembers": 0,
    "attackable": 1,
    "aggressive": 1,
    "respawnTime": 30,
    "sprites1": 309,
    "sprites2": -1,
    "sprites3": -1,
    "sprites4": -1,
    "sprites5": -1,
    "sprites6": -1,
    "sprites7": -1,
    "sprites8": -1,
    "sprites9": -1,
    "sprites10": -1,
    "sprites11": -1,
    "sprites12": -1,
    "hairColour": 0,
    "topColour": 0,
    "bottomColour": 0,
    "skinColour": 0,
    "camera1": 345,
    "camera2": 410,
    "walkModel": 11,
    "combatModel": 11,
    "combatSprite": 30,
    "canEdit": 0,
    "roundMode": 0
  },
  {
    "id": 803,
    "name": "Wizard Sedridor",
    "description": "An old wizard",
    "command": "teleport",
    "command2": "",
    "attack": 0,
    "strength": 0,
    "hits": 0,
    "defense": 0,
    "ranged": false,
    "combatlvl": 0,
    "isMembers": 0,
    "attackable": 0,
    "aggressive": 0,
    "respawnTime": 30,
    "sprites1": 6,
    "sprites2": 1,
    "sprites3": 2,
    "sprites4": -1,
    "sprites5": -1,
    "sprites6": 77,
    "sprites7": 76,
    "sprites8": 81,
    "sprites9": -1,
    "sprites10": -1,
    "sprites11": -1,
    "sprites12": -1,
    "hairColour": 14535816,
    "topColour": 255,
    "bottomColour": 255,
    "skinColour": 15523536,
    "camera1": 145,
    "camera2": 220,
    "walkModel": 6,
    "combatModel": 6,
    "combatSprite": 5,
    "canEdit": 0,
    "roundMode": 0
  },
  {
    "id": 804,
    "name": "Scot Ruth",
    "description": "A smelly, dirty dwarf",
    "command": "",
    "command2": "",
    "attack": 20,
    "strength": 17,
    "hits": 16,
    "defense": 20,
    "ranged": false,
    "combatlvl": 18,
    "isMembers": 1,
    "attackable": 0,
    "aggressive": 0,
    "respawnTime": 30,
    "sprites1": 6,
    "sprites2": 1,
    "sprites3": 2,
    "sprites4": -1,
    "sprites5": -1,
    "sprites6": -1,
    "sprites7": 45,
    "sprites8": -1,
    "sprites9": -1,
    "sprites10": -1,
    "sprites11": -1,
    "sprites12": 63,
    "hairColour": 7360576,
    "topColour": 3158064,
    "bottomColour": 3158064,
    "skinColour": 15523536,
    "camera1": 121,
    "camera2": 176,
    "walkModel": 6,
    "combatModel": 6,
    "combatSprite": 5,
    "canEdit": 0,
    "roundMode": 0
  },
  {
    "id": 805,
    "name": "Gardener",
    "description": "She takes care of the plants around",
    "command": "Trade",
    "command2": "",
    "attack": 25,
    "strength": 25,
    "hits": 10,
    "defense": 20,
    "ranged": false,
    "combatlvl": 20,
    "isMembers": 0,
    "attackable": 0,
    "aggressive": 0,
    "respawnTime": 30,
    "sprites1": 3,
    "sprites2": 4,
    "sprites3": 2,
    "sprites4": -1,
    "sprites5": -1,
    "sprites6": -1,
    "sprites7": -1,
    "sprites8": 87,
    "sprites9": -1,
    "sprites10": -1,
    "sprites11": -1,
    "sprites12": -1,
    "hairColour": 16753488,
    "topColour": 5286432,
    "bottomColour": 10510400,
    "skinColour": 13415270,
    "camera1": 125,
    "camera2": 225,
    "walkModel": 6,
    "combatModel": 6,
    "combatSprite": 5,
    "canEdit": 0,
    "roundMode": 0
  },
  {
    "id": 806,
    "name": "Gramat",
    "description": "He looks worried",
    "command": "",
    "command2": "",
    "attack": 20,
    "strength": 17,
    "hits": 16,
    "defense": 20,
    "ranged": false,
    "combatlvl": 18,
    "isMembers": 0,
    "attackable": 0,
    "aggressive": 0,
    "respawnTime": 30,
    "sprites1": 6,
    "sprites2": 1,
    "sprites3": 2,
    "sprites4": -1,
    "sprites5": -1,
    "sprites6": -1,
    "sprites7": 45,
    "sprites8": -1,
    "sprites9": -1,
    "sprites10": -1,
    "sprites11": -1,
    "sprites12": -1,
    "hairColour": 7360576,
    "topColour": 9465888,
    "bottomColour": 13393952,
    "skinColour": 15523536,
    "camera1": 121,
    "camera2": 176,
    "walkModel": 6,
    "combatModel": 6,
    "combatSprite": 5,
    "canEdit": 0,
    "roundMode": 0
  },
  {
    "id": 807,
    "name": "Dwarven Smithy",
    "description": "A master of metals",
    "command": "",
    "command2": "",
    "attack": 20,
    "strength": 17,
    "hits": 16,
    "defense": 20,
    "ranged": false,
    "combatlvl": 18,
    "isMembers": 0,
    "attackable": 0,
    "aggressive": 0,
    "respawnTime": 30,
    "sprites1": 6,
    "sprites2": 1,
    "sprites3": 2,
    "sprites4": -1,
    "sprites5": -1,
    "sprites6": -1,
    "sprites7": 45,
    "sprites8": -1,
    "sprites9": -1,
    "sprites10": -1,
    "sprites11": -1,
    "sprites12": -1,
    "hairColour": 7360576,
    "topColour": 9465888,
    "bottomColour": 13393952,
    "skinColour": 15523536,
    "camera1": 121,
    "camera2": 176,
    "walkModel": 6,
    "combatModel": 6,
    "combatSprite": 5,
    "canEdit": 0,
    "roundMode": 0
  },
  {
    "id": 808,
    "name": "Dwarven Youth",
    "description": "He is upset",
    "command": "",
    "command2": "",
    "attack": 20,
    "strength": 17,
    "hits": 16,
    "defense": 20,
    "ranged": false,
    "combatlvl": 18,
    "isMembers": 0,
    "attackable": 0,
    "aggressive": 0,
    "respawnTime": 30,
    "sprites1": 6,
    "sprites2": 1,
    "sprites3": 2,
    "sprites4": -1,
    "sprites5": -1,
    "sprites6": -1,
    "sprites7": 45,
    "sprites8": -1,
    "sprites9": -1,
    "sprites10": -1,
    "sprites11": -1,
    "sprites12": -1,
    "hairColour": 7360576,
    "topColour": 9465888,
    "bottomColour": 13393952,
    "skinColour": 15523536,
    "camera1": 121,
    "camera2": 176,
    "walkModel": 6,
    "combatModel": 6,
    "combatSprite": 5,
    "canEdit": 0,
    "roundMode": 0
  },
  {
    "id": 809,
    "name": "Balrog",
    "description": "A massive black demon",
    "command": "",
    "command2": "",
    "attack": 999,
    "strength": 250,
    "hits": 500,
    "defense": 80,
    "ranged": false,
    "combatlvl": 217,
    "isMembers": 1,
    "attackable": 1,
    "aggressive": 1,
    "respawnTime": 73,
    "sprites1": 164,
    "sprites2": -1,
    "sprites3": -1,
    "sprites4": -1,
    "sprites5": -1,
    "sprites6": -1,
    "sprites7": -1,
    "sprites8": -1,
    "sprites9": -1,
    "sprites10": -1,
    "sprites11": -1,
    "sprites12": -1,
    "hairColour": 0,
    "topColour": 0,
    "bottomColour": 0,
    "skinColour": 0,
    "camera1": 358,
    "camera2": 341,
    "walkModel": 11,
    "combatModel": 11,
    "combatSprite": 30,
    "canEdit": 0,
    "roundMode": -1
  },
  {
    "id": 810,
    "name": "Silicius",
    "description": "A Peaceful monk",
    "command": "",
    "command2": "",
    "attack": 12,
    "strength": 13,
    "hits": 15,
    "defense": 12,
    "ranged": false,
    "combatlvl": 13,
    "isMembers": 1,
    "attackable": 0,
    "aggressive": 0,
    "respawnTime": 30,
    "sprites1": 6,
    "sprites2": 1,
    "sprites3": 2,
    "sprites4": -1,
    "sprites5": -1,
    "sprites6": -1,
    "sprites7": 83,
    "sprites8": 87,
    "sprites9": -1,
    "sprites10": -1,
    "sprites11": -1,
    "sprites12": -1,
    "hairColour": 16761440,
    "topColour": 65535,
    "bottomColour": 255,
    "skinColour": 15523536,
    "camera1": 145,
    "camera2": 220,
    "walkModel": 6,
    "combatModel": 6,
    "combatSprite": 5,
    "canEdit": 0,
    "roundMode": 0
  },
  {
    "id": 811,
    "name": "Robin Banks",
    "description": "A master thief",
    "command": "",
    "command2": "",
    "attack": 34,
    "strength": 32,
    "hits": 37,
    "defense": 33,
    "ranged": false,
    "combatlvl": 34,
    "isMembers": 1,
    "attackable": 0,
    "aggressive": 0,
    "respawnTime": 61,
    "sprites1": 6,
    "sprites2": 1,
    "sprites3": 2,
    "sprites4": -1,
    "sprites5": 50,
    "sprites6": -1,
    "sprites7": 45,
    "sprites8": -1,
    "sprites9": 46,
    "sprites10": -1,
    "sprites11": -1,
    "sprites12": -1,
    "hairColour": 1,
    "topColour": 2,
    "bottomColour": 3,
    "skinColour": 15523536,
    "camera1": 150,
    "camera2": 230,
    "walkModel": 6,
    "combatModel": 6,
    "combatSprite": 5,
    "canEdit": 0,
    "roundMode": -1
  },
  {
    "id": 812,
    "name": "Mum",
    "description": "The greatest woman in the world",
    "command": "",
    "command2": "",
    "attack": 1,
    "strength": 99,
    "hits": 3,
    "defense": 1,
    "ranged": false,
    "combatlvl": 34,
    "isMembers": 1,
    "attackable": 0,
    "aggressive": 0,
    "respawnTime": 61,
    "sprites1": 3,
    "sprites2": 1,
    "sprites3": 2,
    "sprites4": -1,
    "sprites5": -1,
    "sprites6": -1,
    "sprites7": -1,
    "sprites8": -1,
    "sprites9": -1,
    "sprites10": -1,
    "sprites11": 9,
    "sprites12": -1,
    "hairColour": 16752704,
    "topColour": 3211263,
    "bottomColour": 14540032,
    "skinColour": 15523536,
    "camera1": 150,
    "camera2": 230,
    "walkModel": 6,
    "combatModel": 6,
    "combatSprite": 5,
    "canEdit": 0,
    "roundMode": -1
  },
  {
    "id": 813,
    "name": "Ester",
    "description": "She looks quite frazzled",
    "command": "",
    "command2": "",
    "attack": 1,
    "strength": 1,
    "hits": 10,
    "defense": 1,
    "ranged": false,
    "combatlvl": 3,
    "isMembers": 1,
    "attackable": 0,
    "aggressive": 0,
    "respawnTime": 61,
    "sprites1": 3,
    "sprites2": 1,
    "sprites3": 2,
    "sprites4": -1,
    "sprites5": 123,
    "sprites6": 192,
    "sprites7": 198,
    "sprites8": 190,
    "sprites9": -1,
    "sprites10": -1,
    "sprites11": -1,
    "sprites12": 69,
    "hairColour": 16752704,
    "topColour": 3211263,
    "bottomColour": 14540032,
    "skinColour": 15523536,
    "camera1": 150,
    "camera2": 230,
    "walkModel": 6,
    "combatModel": 6,
    "combatSprite": 5,
    "canEdit": 0,
    "roundMode": -1
  },
  {
    "id": 814,
    "name": "Bunny",
    "description": "A fluffy bunny",
    "command": "",
    "command2": "",
    "attack": 1,
    "strength": 1,
    "hits": 10,
    "defense": 1,
    "ranged": false,
    "combatlvl": 3,
    "isMembers": 0,
    "attackable": 0,
    "aggressive": 0,
    "respawnTime": 61,
    "sprites1": 472,
    "sprites2": -1,
    "sprites3": -1,
    "sprites4": -1,
    "sprites5": -1,
    "sprites6": -1,
    "sprites7": -1,
    "sprites8": -1,
    "sprites9": -1,
    "sprites10": -1,
    "sprites11": -1,
    "sprites12": -1,
    "hairColour": 16752704,
    "topColour": 3211263,
    "bottomColour": 14540032,
    "skinColour": 15523536,
    "camera1": 115,
    "camera2": 45,
    "walkModel": 6,
    "combatModel": 6,
    "combatSprite": 5,
    "canEdit": 0,
    "roundMode": -1
  },
  {
    "id": 815,
    "name": "Duck",
    "description": "Definitely not the ugly one",
    "command": "",
    "command2": "",
    "attack": 1,
    "strength": 1,
    "hits": 10,
    "defense": 1,
    "ranged": false,
    "combatlvl": 3,
    "isMembers": 0,
    "attackable": 0,
    "aggressive": 0,
    "respawnTime": 61,
    "sprites1": 473,
    "sprites2": -1,
    "sprites3": -1,
    "sprites4": -1,
    "sprites5": -1,
    "sprites6": -1,
    "sprites7": -1,
    "sprites8": -1,
    "sprites9": -1,
    "sprites10": -1,
    "sprites11": -1,
    "sprites12": -1,
    "hairColour": 16752704,
    "topColour": 3211263,
    "bottomColour": 14540032,
    "skinColour": 15523536,
    "camera1": 150,
    "camera2": 230,
    "walkModel": 6,
    "combatModel": 6,
    "combatSprite": 5,
    "canEdit": 0,
    "roundMode": -1
  },
  {
    "id": 816,
    "name": "PK Bot",
    "description": "He looks scary.",
    "command": "",
    "command2": "",
    "attack": 40,
    "strength": 230,
    "hits": 87,
    "defense": 1,
    "ranged": false,
    "combatlvl": 57,
    "isMembers": 0,
    "attackable": 1,
    "aggressive": 0,
    "respawnTime": 60,
    "sprites1": 0,
    "sprites2": 1,
    "sprites3": 2,
    "sprites4": -1,
    "sprites5": 52,
    "sprites6": 8,
    "sprites7": 83,
    "sprites8": 87,
    "sprites9": -1,
    "sprites10": -1,
    "sprites11": -1,
    "sprites12": -1,
    "hairColour": 16761440,
    "topColour": 8409120,
    "bottomColour": 33415270,
    "skinColour": 15523536,
    "camera1": 145,
    "camera2": 230,
    "walkModel": 6,
    "combatModel": 6,
    "combatSprite": 5,
    "canEdit": 0,
    "roundMode": -1
  },
  {
    "id": 817,
    "name": "Death",
    "description": "He sure could do with gaining some weight",
    "command": "",
    "command2": "",
    "attack": 15,
    "strength": 15,
    "hits": 12,
    "defense": 12,
    "ranged": false,
    "combatlvl": 34,
    "isMembers": 0,
    "attackable": 0,
    "aggressive": 0,
    "respawnTime": 61,
    "sprites1": 0,
    "sprites2": 449,
    "sprites3": 2,
    "sprites4": -1,
    "sprites5": -1,
    "sprites6": -1,
    "sprites7": 82,
    "sprites8": 88,
    "sprites9": -1,
    "sprites10": -1,
    "sprites11": -1,
    "sprites12": -1,
    "hairColour": 1,
    "topColour": 2,
    "bottomColour": 3,
    "skinColour": 15523536,
    "camera1": 145,
    "camera2": 220,
    "walkModel": 6,
    "combatModel": 6,
    "combatSprite": 5,
    "canEdit": 0,
    "roundMode": -1
  },
  {
    "id": 818,
    "name": "Loan Officer",
    "description": "He loan me some money",
    "command": "",
    "command2": "",
    "attack": 11,
    "strength": 8,
    "hits": 7,
    "defense": 11,
    "ranged": false,
    "combatlvl": 9,
    "isMembers": 0,
    "attackable": 0,
    "aggressive": 0,
    "respawnTime": 30,
    "sprites1": 0,
    "sprites2": 1,
    "sprites3": 2,
    "sprites4": -1,
    "sprites5": -1,
    "sprites6": -1,
    "sprites7": -1,
    "sprites8": -1,
    "sprites9": -1,
    "sprites10": -1,
    "sprites11": -1,
    "sprites12": -1,
    "hairColour": 15921906,
    "topColour": 2,
    "bottomColour": 3,
    "skinColour": 15523536,
    "camera1": 145,
    "camera2": 220,
    "walkModel": 6,
    "combatModel": 6,
    "combatSprite": 5,
    "canEdit": 0,
    "roundMode": 0
  },
  {
    "id": 819,
    "name": "Santa",
    "description": "He sure could do with gaining some weight",
    "command": "",
    "command2": "",
    "attack": 123,
    "strength": 123,
    "hits": 123,
    "defense": 123,
    "ranged": false,
    "combatlvl": 123,
    "isMembers": 0,
    "attackable": 0,
    "aggressive": 0,
    "respawnTime": 30,
    "sprites1": 6,
    "sprites2": 1,
    "sprites3": 2,
    "sprites4": -1,
    "sprites5": -1,
    "sprites6": 208,
    "sprites7": 395,
    "sprites8": 396,
    "sprites9": 46,
    "sprites10": -1,
    "sprites11": -1,
    "sprites12": -1,
    "hairColour": 16777215,
    "topColour": 16711680,
    "bottomColour": 16711680,
    "skinColour": 15523536,
    "camera1": 145,
    "camera2": 220,
    "walkModel": 6,
    "combatModel": 6,
    "combatSprite": 5,
    "canEdit": 0,
    "roundMode": 0
  },
  {
    "id": 820,
    "name": "Kresh",
    "description": "He's kind of like an onion",
    "command": "",
    "command2": "",
    "attack": 123,
    "strength": 123,
    "hits": 123,
    "defense": 123,
    "ranged": false,
    "combatlvl": 123,
    "isMembers": 0,
    "attackable": 0,
    "aggressive": 0,
    "respawnTime": 30,
    "sprites1": 7,
    "sprites2": 1,
    "sprites3": 2,
    "sprites4": -1,
    "sprites5": -1,
    "sprites6": 500,
    "sprites7": 501,
    "sprites8": -1,
    "sprites9": -1,
    "sprites10": -1,
    "sprites11": -1,
    "sprites12": -1,
    "hairColour": 0,
    "topColour": 16777215,
    "bottomColour": 8397845,
    "skinColour": 11927325,
    "camera1": 160,
    "camera2": 220,
    "walkModel": 6,
    "combatModel": 6,
    "combatSprite": 5,
    "canEdit": 0,
    "roundMode": 0
  },
  {
    "id": 821,
    "name": "Lily",
    "description": "She has a green thumb",
    "command": "",
    "command2": "",
    "attack": 1,
    "strength": 1,
    "hits": 10,
    "defense": 1,
    "ranged": false,
    "combatlvl": 3,
    "isMembers": 0,
    "attackable": 0,
    "aggressive": 0,
    "respawnTime": 30,
    "sprites1": 3,
    "sprites2": 1,
    "sprites3": 2,
    "sprites4": -1,
    "sprites5": -1,
    "sprites6": -1,
    "sprites7": -1,
    "sprites8": -1,
    "sprites9": 46,
    "sprites10": -1,
    "sprites11": 10,
    "sprites12": 519,
    "hairColour": 0,
    "topColour": 16777215,
    "bottomColour": 8397845,
    "skinColour": 11927325,
    "camera1": 160,
    "camera2": 220,
    "walkModel": 6,
    "combatModel": 6,
    "combatSprite": 5,
    "canEdit": 0,
    "roundMode": 0
  },
  {
    "id": 822,
    "name": "Peter Skippin",
    "description": "Shut up, Meg",
    "command": "",
    "command2": "",
    "attack": 20,
    "strength": 20,
    "hits": 20,
    "defense": 20,
    "ranged": false,
    "combatlvl": 20,
    "isMembers": 0,
    "attackable": 0,
    "aggressive": 0,
    "respawnTime": 30,
    "sprites1": 5,
    "sprites2": 1,
    "sprites3": 2,
    "sprites4": -1,
    "sprites5": -1,
    "sprites6": -1,
    "sprites7": -1,
    "sprites8": -1,
    "sprites9": -1,
    "sprites10": -1,
    "sprites11": -1,
    "sprites12": -1,
    "hairColour": 0,
    "topColour": 16777215,
    "bottomColour": 8397845,
    "skinColour": 11927325,
    "camera1": 160,
    "camera2": 220,
    "walkModel": 6,
    "combatModel": 6,
    "combatSprite": 5,
    "canEdit": 0,
    "roundMode": 0
  },
  {
    "id": 823,
    "name": "Mortimer",
    "description": "A not-so-wealthy tradesman",
    "command": "",
    "command2": "",
    "attack": 11,
    "strength": 11,
    "hits": 7,
    "defense": 8,
    "ranged": false,
    "combatlvl": 9,
    "isMembers": 0,
    "attackable": 0,
    "aggressive": 0,
    "respawnTime": 30,
    "sprites1": 0,
    "sprites2": 1,
    "sprites3": 2,
    "sprites4": -1,
    "sprites5": -1,
    "sprites6": -1,
    "sprites7": -1,
    "sprites8": -1,
    "sprites9": -1,
    "sprites10": -1,
    "sprites11": -1,
    "sprites12": -1,
    "hairColour": 15921906,
    "topColour": 2,
    "bottomColour": 3,
    "skinColour": 15523536,
    "camera1": 145,
    "camera2": 220,
    "walkModel": 6,
    "combatModel": 6,
    "combatSprite": 5,
    "canEdit": 0,
    "roundMode": 0
  },
  {
    "id": 824,
    "name": "Randolph",
    "description": "A not-so-wealthy tradesman",
    "command": "",
    "command2": "",
    "attack": 11,
    "strength": 11,
    "hits": 7,
    "defense": 8,
    "ranged": false,
    "combatlvl": 9,
    "isMembers": 0,
    "attackable": 0,
    "aggressive": 0,
    "respawnTime": 30,
    "sprites1": 0,
    "sprites2": 1,
    "sprites3": 2,
    "sprites4": -1,
    "sprites5": -1,
    "sprites6": -1,
    "sprites7": -1,
    "sprites8": -1,
    "sprites9": -1,
    "sprites10": -1,
    "sprites11": -1,
    "sprites12": -1,
    "hairColour": 15921906,
    "topColour": 2,
    "bottomColour": 3,
    "skinColour": 15523536,
    "camera1": 145,
    "camera2": 220,
    "walkModel": 6,
    "combatModel": 6,
    "combatSprite": 5,
    "canEdit": 0,
    "roundMode": 0
  },
  {
    "id": 825,
    "name": "Ana (not in a barrel)",
    "description": "I should update my client.",
    "command": "",
    "command2": "",
    "attack": 17,
    "strength": 18,
    "hits": 16,
    "defense": 15,
    "ranged": false,
    "combatlvl": 16,
    "isMembers": 1,
    "attackable": 0,
    "aggressive": 0,
    "respawnTime": 62,
    "sprites1": 3,
    "sprites2": 1,
    "sprites3": 2,
    "sprites4": -1,
    "sprites5": -1,
    "sprites6": -1,
    "sprites7": 213,
    "sprites8": 214,
    "sprites9": -1,
    "sprites10": -1,
    "sprites11": -1,
    "sprites12": -1,
    "hairColour": 16760880,
    "topColour": 8409120,
    "bottomColour": 8409120,
    "skinColour": 10056486,
    "camera1": 120,
    "camera2": 220,
    "walkModel": 6,
    "combatModel": 6,
    "combatSprite": 5,
    "canEdit": 0,
    "roundMode": 0
  },
  {
    "id": 826,
    "name": "Biggum Flodrot",
    "description": "Biggum Flodrot, goblin hero",
    "command": "",
    "command2": "",
    "attack": 99,
    "strength": 99,
    "hits": 99,
    "defense": 99,
    "ranged": false,
    "combatlvl": 123,
    "isMembers": 1,
    "attackable": 0,
    "aggressive": 0,
    "respawnTime": 60,
    "sprites1": 142,
    "sprites2": 139,
    "sprites3": -1,
    "sprites4": -1,
    "sprites5": -1,
    "sprites6": -1,
    "sprites7": -1,
    "sprites8": -1,
    "sprites9": -1,
    "sprites10": -1,
    "sprites11": -1,
    "sprites12": -1,
    "hairColour": 0,
    "topColour": 0,
    "bottomColour": 0,
    "skinColour": 0,
    "camera1": 219,
    "camera2": 206,
    "walkModel": 9,
    "combatModel": 8,
    "combatSprite": 5,
    "canEdit": 0,
    "roundMode": 1
  },
  {
    "id": 827,
    "name": "Spookie",
    "description": "A spooky, scary skeleton!",
    "command": "",
    "command2": "",
    "attack": 0,
    "strength": 0,
    "hits": 10,
    "defense": 1,
    "ranged": false,
    "combatlvl": 13,
    "isMembers": 0,
    "attackable": 0,
    "aggressive": 0,
    "respawnTime": 1,
    "sprites1": 133,
    "sprites2": -1,
    "sprites3": -1,
    "sprites4": -1,
    "sprites5": -1,
    "sprites6": -1,
    "sprites7": -1,
    "sprites8": -1,
    "sprites9": -1,
    "sprites10": -1,
    "sprites11": -1,
    "sprites12": -1,
    "hairColour": 0,
    "topColour": 0,
    "bottomColour": 0,
    "skinColour": 0,
    "camera1": 216,
    "camera2": 234,
    "walkModel": 11,
    "combatModel": 11,
    "combatSprite": 5,
    "canEdit": 0,
    "roundMode": -1
  },
  {
    "id": 828,
    "name": "Scarie",
    "description": "A spooky, scary skeleton!",
    "command": "",
    "command2": "",
    "attack": 0,
    "strength": 0,
    "hits": 10,
    "defense": 1,
    "ranged": false,
    "combatlvl": 2,
    "isMembers": 0,
    "attackable": 0,
    "aggressive": 0,
    "respawnTime": 1,
    "sprites1": 133,
    "sprites2": -1,
    "sprites3": -1,
    "sprites4": -1,
    "sprites5": -1,
    "sprites6": -1,
    "sprites7": -1,
    "sprites8": -1,
    "sprites9": -1,
    "sprites10": -1,
    "sprites11": -1,
    "sprites12": -1,
    "hairColour": 0,
    "topColour": 0,
    "bottomColour": 0,
    "skinColour": 0,
    "camera1": 216,
    "camera2": 234,
    "walkModel": 11,
    "combatModel": 11,
    "combatSprite": 5,
    "canEdit": 0,
    "roundMode": -1
  },
  {
    "id": 829,
    "name": "Todd Sandyman",
    "description": "Some of the children call him \"The White Ogre\"",
    "command": "",
    "command2": "",
    "attack": 0,
    "strength": 0,
    "hits": 3,
    "defense": 0,
    "ranged": false,
    "combatlvl": 0,
    "isMembers": 1,
    "attackable": 0,
    "aggressive": 0,
    "respawnTime": 30,
    "sprites1": 0,
    "sprites2": 1,
    "sprites3": 2,
    "sprites4": -1,
    "sprites5": 109,
    "sprites6": -1,
    "sprites7": -1,
    "sprites8": -1,
    "sprites9": -1,
    "sprites10": -1,
    "sprites11": -1,
    "sprites12": -1,
    "hairColour": 16753488,
    "topColour": 16732192,
    "bottomColour": 8409120,
    "skinColour": 15523536,
    "camera1": 145,
    "camera2": 220,
    "walkModel": 6,
    "combatModel": 6,
    "combatSprite": 5,
    "canEdit": 0,
    "roundMode": 0
  }
]
}
